; Engine configuration file.
; It's best edited using the editor UI and not directly,
; since the parameters that go here are not all obvious.
;
; Format:
;   [section] ; section goes between []
;   param=value ; assign values to parameters

config_version=4

_global_script_classes=[  ]
_global_script_class_icons={

}

[application]

config/name="pcbvr"
run/main_scene="res://Main.tscn"
boot_splash/image="res://w5 slide deck.png"
config/icon="res://icon.png"

[autoload]

GLOBAL="*res://global.gd"

[gdnative]

singletons=[ "res://addons/godot-openvr/godot_openvr.gdnlib" ]

[layer_names]

3d_render/layer_1="On both"
3d_physics/layer_1="Player"
3d_render/layer_2="Only on HMD"
3d_physics/layer_2="Environment"
3d_render/layer_3="Not on HMD"
3d_physics/layer_3="Objects"

[rendering]

environment/default_environment="res://default_env.tres"
